<?xml version="1.0" encoding="UTF-8"?>
<glyph name="M" format="2">
	<advance width="748"/>
	<unicode hex="004D"/>
	<unicode hex="006D"/>
	<guideline x="191" y="-30" angle="0"/>
	<anchor x="374" y="700" name="top"/>
	<anchor x="374" y="0" name="bottom"/>
	<outline>
		<contour>
			<point x="682" y="-22" type="curve"/>
			<point x="713" y="58" type="line"/>
			<point x="643" y="78"/>
			<point x="598" y="133"/>
			<point x="598" y="195" type="curve" smooth="yes"/>
			<point x="598" y="256"/>
			<point x="638" y="298"/>
			<point x="689" y="222" type="curve"/>
			<point x="728" y="299" type="line"/>
			<point x="669" y="289"/>
			<point x="640" y="330"/>
			<point x="640" y="392" type="curve" smooth="yes"/>
			<point x="640" y="459"/>
			<point x="698" y="493"/>
			<point x="728" y="470" type="curve"/>
			<point x="706" y="552" type="line"/>
			<point x="673" y="494"/>
			<point x="645" y="536"/>
			<point x="645" y="582" type="curve" smooth="yes"/>
			<point x="645" y="625"/>
			<point x="667" y="677"/>
			<point x="728" y="681" type="curve"/>
			<point x="634" y="752" type="line"/>
			<point x="627" y="695"/>
			<point x="604" y="659"/>
			<point x="571" y="659" type="curve" smooth="yes"/>
			<point x="555" y="659"/>
			<point x="537" y="672"/>
			<point x="517" y="704" type="curve"/>
			<point x="466" y="636" type="line"/>
			<point x="515" y="635"/>
			<point x="533" y="600"/>
			<point x="533" y="553" type="curve" smooth="yes"/>
			<point x="533" y="505"/>
			<point x="515" y="463"/>
			<point x="500" y="463" type="curve" smooth="yes"/>
			<point x="483" y="463"/>
			<point x="471" y="495"/>
			<point x="469" y="543" type="curve"/>
			<point x="396" y="475" type="line"/>
			<point x="430" y="470"/>
			<point x="452" y="446"/>
			<point x="452" y="414" type="curve" smooth="yes"/>
			<point x="452" y="371"/>
			<point x="379" y="341"/>
			<point x="379" y="280" type="curve"/>
			<point x="369" y="280" type="line"/>
			<point x="369" y="0" type="line"/>
			<point x="418" y="0" type="line"/>
			<point x="407" y="13"/>
			<point x="401" y="33"/>
			<point x="401" y="51" type="curve" smooth="yes"/>
			<point x="401" y="72"/>
			<point x="409" y="90"/>
			<point x="430" y="90" type="curve" smooth="yes"/>
			<point x="445" y="90"/>
			<point x="462" y="82"/>
			<point x="461" y="58" type="curve"/>
			<point x="496" y="136" type="line"/>
			<point x="431" y="113"/>
			<point x="401" y="134"/>
			<point x="401" y="179" type="curve" smooth="yes"/>
			<point x="401" y="342"/>
			<point x="591" y="372"/>
			<point x="586" y="553" type="curve" smooth="yes"/>
			<point x="585" y="582"/>
			<point x="582" y="592"/>
			<point x="578" y="602" type="curve"/>
			<point x="589" y="607" type="line"/>
			<point x="602" y="581"/>
			<point x="607" y="556"/>
			<point x="607" y="531" type="curve" smooth="yes"/>
			<point x="607" y="443"/>
			<point x="543" y="338"/>
			<point x="543" y="195" type="curve" smooth="yes"/>
			<point x="543" y="109"/>
			<point x="586" y="5"/>
		</contour>
		<contour>
			<point x="35" y="58" type="curve"/>
			<point x="66" y="-22" type="line"/>
			<point x="162" y="5"/>
			<point x="205" y="109"/>
			<point x="205" y="195" type="curve" smooth="yes"/>
			<point x="205" y="338"/>
			<point x="141" y="443"/>
			<point x="141" y="531" type="curve" smooth="yes"/>
			<point x="141" y="556"/>
			<point x="146" y="581"/>
			<point x="159" y="607" type="curve"/>
			<point x="170" y="602" type="line"/>
			<point x="166" y="592"/>
			<point x="163" y="582"/>
			<point x="162" y="553" type="curve" smooth="yes"/>
			<point x="157" y="372"/>
			<point x="347" y="342"/>
			<point x="347" y="179" type="curve" smooth="yes"/>
			<point x="347" y="134"/>
			<point x="317" y="113"/>
			<point x="252" y="136" type="curve"/>
			<point x="287" y="58" type="line"/>
			<point x="286" y="82"/>
			<point x="303" y="90"/>
			<point x="318" y="90" type="curve" smooth="yes"/>
			<point x="339" y="90"/>
			<point x="347" y="72"/>
			<point x="347" y="51" type="curve" smooth="yes"/>
			<point x="347" y="33"/>
			<point x="341" y="13"/>
			<point x="330" y="0" type="curve"/>
			<point x="379" y="0" type="line"/>
			<point x="379" y="280" type="line"/>
			<point x="369" y="280" type="line"/>
			<point x="369" y="341"/>
			<point x="296" y="371"/>
			<point x="296" y="414" type="curve" smooth="yes"/>
			<point x="296" y="446"/>
			<point x="318" y="470"/>
			<point x="352" y="475" type="curve"/>
			<point x="279" y="543" type="line"/>
			<point x="277" y="495"/>
			<point x="265" y="463"/>
			<point x="248" y="463" type="curve" smooth="yes"/>
			<point x="233" y="463"/>
			<point x="215" y="505"/>
			<point x="215" y="553" type="curve" smooth="yes"/>
			<point x="215" y="600"/>
			<point x="233" y="635"/>
			<point x="282" y="636" type="curve"/>
			<point x="231" y="704" type="line"/>
			<point x="211" y="672"/>
			<point x="193" y="659"/>
			<point x="177" y="659" type="curve" smooth="yes"/>
			<point x="144" y="659"/>
			<point x="121" y="695"/>
			<point x="114" y="752" type="curve"/>
			<point x="20" y="681" type="line"/>
			<point x="81" y="677"/>
			<point x="103" y="625"/>
			<point x="103" y="582" type="curve" smooth="yes"/>
			<point x="103" y="536"/>
			<point x="75" y="494"/>
			<point x="42" y="552" type="curve"/>
			<point x="20" y="470" type="line"/>
			<point x="50" y="493"/>
			<point x="108" y="459"/>
			<point x="108" y="392" type="curve" smooth="yes"/>
			<point x="108" y="330"/>
			<point x="79" y="289"/>
			<point x="20" y="299" type="curve"/>
			<point x="59" y="222" type="line"/>
			<point x="110" y="298"/>
			<point x="150" y="256"/>
			<point x="150" y="195" type="curve" smooth="yes"/>
			<point x="150" y="133"/>
			<point x="105" y="78"/>
		</contour>
	</outline>
</glyph>
