<?xml version="1.0" encoding="UTF-8"?>
<glyph name="Scaron" format="2">
	<advance width="515"/>
	<unicode hex="0160"/>
	<outline>
		<component base="S"/>
		<component base="uni030C" xOffset="421" yOffset="144"/>
	</outline>
</glyph>
